2.634739162063598883e+02
2.843931610107421903e+01
2.023392507553100472e+01
1.856468809127807518e+01
1.735999644279479881e+01
1.626981263160705637e+01
1.521951707839965806e+01
1.452512865066528391e+01
1.369244254112243731e+01
1.313583608627319421e+01
1.269523881912231467e+01
1.221889295578002965e+01
1.183777904510498047e+01
1.155268663406372021e+01
1.140535557746887285e+01
1.116350028038024966e+01
1.103235753059387214e+01
1.072364719390869148e+01
1.063349537849426341e+01
1.044549332618713322e+01
1.045392573356628496e+01
1.010718917846679688e+01
1.002922562599182044e+01
9.847744636535644247e+00
9.883790235519409606e+00
9.912683582305907848e+00
9.853193550109862642e+00
9.619596204757691282e+00
9.651842937469481853e+00
9.709109029769898314e+00
9.538425111770630238e+00
9.430799498558045002e+00
9.366585865020752522e+00
9.271587948799133727e+00
9.258037867546081046e+00
9.285055909156799459e+00
9.200778746604919789e+00
9.127948236465453391e+00
9.197888760566710786e+00
9.052446055412293191e+00
9.055471653938292675e+00
8.995359802246094105e+00
9.023445968627930469e+00
8.931907801628112153e+00
8.870304212570189861e+00
8.879704556465149778e+00
8.819101896286010600e+00
8.881168437004088645e+00
8.891788082122802805e+00
8.843407859802246307e+00
