5.390629600524902543e+01
1.989373382568359361e+01
1.733619026184081946e+01
1.701241275787353402e+01
1.682857318878173913e+01
1.463879610061645486e+01
1.345374202728271484e+01
1.297647014617919936e+01
1.211064510345459055e+01
1.157582141876220660e+01
1.112879610061645508e+01
1.126411226272582944e+01
1.197650308609008718e+01
1.107704643249511633e+01
1.010351442337036154e+01
9.851487216949463388e+00
9.633766479492187784e+00
9.499492225646973154e+00
9.291990861892699627e+00
1.004432365417480533e+01
9.688145179748534730e+00
8.997109432220458558e+00
9.196028652191161612e+00
8.956910753250122426e+00
9.670465583801268750e+00
8.965683155059814169e+00
8.824365720748900799e+00
8.655658292770386453e+00
8.747685489654541513e+00
8.757156076431273917e+00
8.815021457672118643e+00
8.372889957427979368e+00
8.583568344116210724e+00
8.530887899398804208e+00
8.463445005416870615e+00
8.424041376113891033e+00
8.379103479385376474e+00
8.213726539611815980e+00
8.102058496475219584e+00
8.076145648956298828e+00
8.026167106628417258e+00
8.170341463088989897e+00
8.054767313003539542e+00
8.210477762222289755e+00
7.965496997833252379e+00
7.956592369079589666e+00
8.113507537841796236e+00
7.875394105911254883e+00
7.934409093856811701e+00
7.936944065093993750e+00
